<?xml version="1.0" encoding="UTF-8"?>
<!DOCTYPE svg PUBLIC "-//W3C//DTD SVG 1.1//EN" "http://www.w3.org/Graphics/SVG/1.1/DTD/svg11.dtd">
<!-- Creator: CorelDRAW 2018 (64 Bit) -->
<svg xmlns="http://www.w3.org/2000/svg" xml:space="preserve" width="16px" height="16px" version="1.1" style="shape-rendering:geometricPrecision; text-rendering:geometricPrecision; image-rendering:optimizeQuality; fill-rule:evenodd; clip-rule:evenodd"
viewBox="0 0 0.039 0.041"
 xmlns:xlink="http://www.w3.org/1999/xlink">
 <defs>
  <style type="text/css">
   <![CDATA[
    .fil0 {fill:#FDB524;fill-rule:nonzero}
   ]]>
  </style>
 </defs>
 <g id="Layer_x0020_1">
  <metadata id="CorelCorpID_0Corel-Layer"/>
  <path class="fil0" d="M0.039 0.012l0 0.017c0,0.003 -0.001,0.006 -0.003,0.008 -0.002,0.002 -0.005,0.004 -0.008,0.004l-0.016 0c-0.004,0 -0.007,-0.002 -0.009,-0.004 -0.002,-0.002 -0.003,-0.005 -0.003,-0.008l0 -0.017c0,-0.004 0.001,-0.007 0.003,-0.009 0.002,-0.002 0.005,-0.003 0.009,-0.003l0.016 0c0.003,0 0.006,0.001 0.008,0.003 0.002,0.002 0.003,0.005 0.003,0.009zm-0.006 -0.003c0,0.002 -0.001,0.003 -0.002,0.003 -0.002,0 -0.003,-0.001 -0.003,-0.003 0,-0.001 0.001,-0.002 0.003,-0.002 0.001,0 0.002,0.001 0.002,0.002zm-0.002 0.011c-0.001,0.003 -0.002,0.006 -0.004,0.008 -0.002,0.002 -0.004,0.003 -0.007,0.003 -0.003,0 -0.006,-0.001 -0.008,-0.003 -0.002,-0.002 -0.003,-0.005 -0.003,-0.008 0,0 0,0 0,0 0,-0.003 0.001,-0.006 0.003,-0.007 0.002,-0.002 0.005,-0.004 0.007,-0.004 0.001,0 0.001,0 0.001,0 0.003,0.001 0.006,0.002 0.008,0.004 0.002,0.001 0.003,0.004 0.003,0.007zm-0.006 0.005c0.001,-0.001 0.002,-0.003 0.002,-0.005 0,-0.002 -0.001,-0.004 -0.002,-0.005 -0.001,-0.001 -0.003,-0.002 -0.005,-0.002 0,0 0,0 -0.001,0 -0.001,0 -0.003,0.001 -0.004,0.002 -0.002,0.001 -0.002,0.003 -0.002,0.005 0,0 0,0 0,0 0,0.002 0,0.004 0.002,0.005 0.001,0.002 0.003,0.002 0.005,0.002 0.002,0 0.003,0 0.005,-0.002zm0.003 -0.022l-0.016 0c-0.003,0 -0.005,0.001 -0.007,0.002 -0.001,0.002 -0.002,0.004 -0.002,0.007l0 0.017c0,0.002 0.001,0.005 0.002,0.006 0.002,0.002 0.004,0.003 0.007,0.003l0.016 0c0.002,0 0.004,-0.001 0.006,-0.003 0.002,-0.001 0.003,-0.004 0.003,-0.006l0 -0.017c0,-0.003 -0.001,-0.005 -0.003,-0.007 -0.002,-0.001 -0.004,-0.002 -0.006,-0.002z"/>
 </g>
</svg>
