<?xml version="1.0" encoding="UTF-8"?>
<!DOCTYPE svg PUBLIC "-//W3C//DTD SVG 1.1//EN" "http://www.w3.org/Graphics/SVG/1.1/DTD/svg11.dtd">
<!-- Creator: CorelDRAW 2018 (64 Bit) -->
<svg xmlns="http://www.w3.org/2000/svg" xml:space="preserve" width="191px" height="49px" version="1.1" style="shape-rendering:geometricPrecision; text-rendering:geometricPrecision; image-rendering:optimizeQuality; fill-rule:evenodd; clip-rule:evenodd"
viewBox="0 0 8.472 2.178"
 xmlns:xlink="http://www.w3.org/1999/xlink">
 <defs>
  <style type="text/css">
   <![CDATA[
    .fil0 {fill:#897967}
    .fil1 {fill:#FDB524}
   ]]>
  </style>
 </defs>
 <g id="Layer_x0020_1">
  <metadata id="CorelCorpID_0Corel-Layer"/>
  <g id="Logo_x0020_Principal_x0020_RGB.cdr">
   <path class="fil0" d="M6.279 1.194l0 0.221 0 0.015 -0.178 0c-0.13,0 -0.214,-0.054 -0.214,-0.234l0 -0.611 -0.215 0 0 0.655c0,0.284 0.2,0.37 0.429,0.37l0.394 0 0 -1.025 -0.216 0 0 0.609z"/>
   <path class="fil0" d="M3.261 0.569c-0.307,0 -0.521,0.212 -0.521,0.521 0,0.307 0.206,0.521 0.521,0.521l0.291 0 0 -0.195 -0.291 0 0 0.001c-0.175,-0.004 -0.3,-0.132 -0.3,-0.327 0,-0.194 0.119,-0.328 0.3,-0.328l0 0.001 0.291 0 0 -0.195 -0.291 0 0 0.001z"/>
   <path class="fil0" d="M3.977 1.379l-0.078 0.214 -0.226 0 0.39 -1.008 0.26 0 0.394 1.008 -0.235 0 -0.078 -0.214 -0.427 0zm0.215 -0.585l-0.151 0.411 0.301 0 -0.15 -0.411z"/>
   <path class="fil0" d="M6.96 1.379l-0.078 0.214 -0.226 0 0.39 -1.008 0.26 0 0.394 1.008 -0.235 0 -0.078 -0.214 -0.427 0zm0.215 -0.585l-0.151 0.411 0.301 0 -0.15 -0.411z"/>
   <polygon class="fil0" points="7.861,0.585 8.076,0.585 8.076,1.405 8.472,1.405 8.472,1.593 7.861,1.593 "/>
   <path class="fil0" d="M5.478 1.306c0,-0.169 -0.078,-0.259 -0.28,-0.317 -0.117,-0.032 -0.174,-0.061 -0.174,-0.132 0,-0.063 0.047,-0.105 0.132,-0.105l0 -0.001 0.263 0 0 -0.183 -0.263 0 0 0c-0.001,0 -0.003,0 -0.005,0 -0.187,0 -0.336,0.107 -0.336,0.299 0,0.17 0.083,0.254 0.285,0.311 0.105,0.03 0.168,0.059 0.168,0.135 0,0.082 -0.074,0.113 -0.159,0.114l0 0 -0.277 0 0 0.183 0.277 0 0 0c0.205,-0.001 0.369,-0.095 0.369,-0.304z"/>
   <path class="fil1" d="M2.178 1.089c0,-0.601 -0.487,-1.089 -1.089,-1.089 -0.601,0 -1.089,0.488 -1.089,1.089 0,0.602 0.488,1.089 1.089,1.089 0.602,0 1.089,-0.487 1.089,-1.089z"/>
  </g>
 </g>
</svg>
